High Performance Interface to GBIF • gbifdb
…
Remote data access

To begin working with GBIF data directly without downloading the data first, simply establish a remote connection using gbif_remote().

gbif <- gbif_remote()

We can now perform most dplyr operations:

gbif %>%
  filter(phylum == "Chordata", year > 1990) %>%
  count(class, year) %>%
  collect()
#> # A tibble: 461 × 3
#>    class           year       n
#>    <chr>          <int>   <int>
#>  1 Actinopterygii  2003  696289
#>  2 Actinopterygii  2009 1152201
#>  3 Elasmobranchii  2009   67477
#>  4 Actinopterygii  2010 1348109
#>  5 Elasmobranchii  2003   22638
#>  6 Ascidiacea      2013    9151
#>  7 Actinopterygii  2002  777535
#>  8 Actinopterygii  2008 1311066
#>  9 Elasmobranchii  2008   64769
#> 10 Elasmobranchii  2002   21948
#> # … with 451 more rows
…
